{
  "tenantId": "pb",
  "moduleName": "egf-master",
  "FinancialYear": [
    {
      "id": "7",
      "tenantId": "pb",
      "finYearRange": "2019-20",
      "name": "2019-20",
      "code": "2019-20",
      "startingDate": 1554076799000,
      "endingDate": 1585679399000,
      "active": true,
      "isActiveForPosting": false,
      "isClosed": false,
      "transferClosingBalance": false,
      "module": "PT"
    },
    {
      "id": "6",
      "tenantId": "pb",
      "finYearRange": "2019-20",
      "name": "2019-20",
      "code": "2019-20",
      "startingDate": 1554076799000,
      "endingDate": 1585679399000,
      "active": true,
      "isActiveForPosting": false,
      "isClosed": false,
      "transferClosingBalance": false,
      "module": "TL"
    },
    {
      "id": "5",
      "tenantId": "pb",
      "finYearRange": "2018-19",
      "name": "2018-19",
      "code": "2018-19",
      "startingDate": 1522540800000,
      "endingDate": 1554076799000,
      "active": true,
      "isActiveForPosting": false,
      "isClosed": false,
      "transferClosingBalance": false,
      "module": "TL"
    },
    {
      "id": "4",
      "tenantId": "pb",
      "finYearRange": "2018-19",
      "name": "2018-19",
      "code": "2018-19",
      "startingDate": 1522540800000,
      "endingDate": 1554076799000,
      "active": true,
      "isActiveForPosting": false,
      "isClosed": false,
      "transferClosingBalance": false,
      "module": "PT"
    },
    {
      "id": "3",
      "tenantId": "pb",
      "finYearRange": "2017-18",
      "name": "2017-18",
      "code": "2017-18",
      "startingDate": 1491004800000,
      "endingDate": 1522540799000,
      "active": true,
      "isActiveForPosting": true,
      "isClosed": false,
      "transferClosingBalance": false,
      "module": "PT"
    },
    {
      "id": "2",
      "tenantId": "pb",
      "finYearRange": "2016-17",
      "name": "2016-17",
      "code": "2016-17",
      "startingDate": 1459468800000,
      "endingDate": 1491004799000,
      "active": true,
      "isActiveForPosting": true,
      "isClosed": false,
      "transferClosingBalance": false,
      "module": "PT"
    },
    {
      "id": "1",
      "tenantId": "pb",
      "finYearRange": "2015-16",
      "name": "2015-16",
      "code": "2015-16",
      "startingDate": 1427846400000,
      "endingDate": 1459468799000,
      "active": true,
      "isActiveForPosting": true,
      "isClosed": false,
      "transferClosingBalance": false,
      "module": "PT"
    }
  ]
}
