{
  "tenantId": "pb",
  "moduleName": "BillingService",
  "TaxHeadMaster": [
    {
      "category": "TAX",
      "service": "PT",
      "name": "Pt adhoc rebate",
      "code": "PT_ADHOC_REBATE",
      "isDebit": true,
      "isActualDemand": false,
      "order": 0
    },
    {
      "category": "ADVANCE_COLLECTION",
      "service": "PT",
      "name": "Pt advance carry forward",
      "code": "PT_ADVANCE_CARRYFORWARD",
      "isDebit": true,
      "isActualDemand": false,
      "order": 0
    },
    {
      "category": "TAX",
      "service": "PT",
      "name": "Pt owner exemption",
      "code": "PT_OWNER_EXEMPTION",
      "isDebit": true,
      "isActualDemand": true,
      "order": 0
    },
    {
      "category": "TAX",
      "service": "PT",
      "name": "Pt time rebate",
      "code": "PT_TIME_REBATE",
      "isDebit": true,
      "isActualDemand": true,
      "order": 0
    },
    {
      "category": "TAX",
      "service": "PT",
      "name": "Pt unit usage excemption",
      "code": "PT_UNIT_USAGE_EXEMPTION",
      "isDebit": true,
      "isActualDemand": true,
      "order": 0
    },
    {
      "category": "TAX",
      "service": "PT",
      "name": "Pt adhoc penalty",
      "code": "PT_ADHOC_PENALTY",
      "isDebit": false,
      "isActualDemand": false,
      "order": 1
    },
    {
      "category": "TAX",
      "service": "PT",
      "name": "propertytax",
      "code": "PT_TAX",
      "isDebit": false,
      "isActualDemand": true,
      "order": 3
    },
    {
      "category": "TAX",
      "service": "PT",
      "name": "Pt fire cess",
      "code": "PT_FIRE_CESS",
      "isDebit": false,
      "isActualDemand": true,
      "order": 2
    },
    {
      "category": "TAX",
      "service": "PT",
      "name": "Pt cancer cess",
      "code": "PT_CANCER_CESS",
      "isDebit": false,
      "isActualDemand": true,
      "order": 2
    },
    {
      "category": "TAX",
      "service": "PT",
      "name": "Pt time penalty",
      "code": "PT_TIME_PENALTY",
      "isDebit": false,
      "isActualDemand": true,
      "order": 2
    },
    {
      "category": "TAX",
      "service": "PT",
      "name": "Pt time interest",
      "code": "PT_TIME_INTEREST",
      "isDebit": false,
      "isActualDemand": true,
      "order": 1
    },
    {
      "category": "TAX",
      "service": "TL",
      "name": "tl tax",
      "code": "TL_TAX",
      "isDebit": false,
      "isActualDemand": true,
      "order": 2
    },
    {
      "category": "TAX",
      "service": "TL",
      "name": "tl roundoff",
      "code": "TL_ROUNDOFF",
      "isDebit": false,
      "isActualDemand": true,
      "order": 0
    },
    {
      "category": "TAX",
      "service": "TL",
      "name": "tl adhoc rebate",
      "code": "TL_ADHOC_REBATE",
      "isDebit": true,
      "isActualDemand": false,
      "order": 0
    },
    {
      "category": "TAX",
      "service": "TL",
      "name": "tl adhoc penalty",
      "code": "TL_ADHOC_PENALTY",
      "isDebit": false,
      "isActualDemand": true,
      "order": 1
    },
    {
      "category": "REBATE",
      "service": "PT",
      "name": "pt debit decimal",
      "code": "PT_DECIMAL_CEILING_DEBIT",
      "isDebit": true,
      "isActualDemand": true,
      "order": 0
    },
    {
      "category": "TAX",
      "service": "PT",
      "name": "pt credit decimal",
      "code": "PT_DECIMAL_CEILING_CREDIT",
      "isDebit": false,
      "isActualDemand": true,
      "order": 1
    },
    {
      "category": "TAX",
      "service": "PT",
      "name": "pt decimal roundOff",
      "code": "PT_ROUNDOFF",
      "isDebit": false,
      "isActualDemand": true,
      "order": 0
    },
    {
      "category": "REBATE",
      "service": "FIRENOC",
      "name": "firenoc adhoc rebate",
      "code": "FIRENOC_ADHOC_REBATE",
      "isDebit": true,
      "isActualDemand": false,
      "order": 0
    },
    {
      "category": "PENALTY",
      "service": "FIRENOC",
      "name": "firenoc adhoc penalty",
      "code": "FIRENOC_ADHOC_PENALTY",
      "isDebit": false,
      "isActualDemand": false,
      "order": 2
    },
    {
      "category": "FEE",
      "service": "FIRENOC",
      "name": "firenoc fees",
      "code": "FIRENOC_FEES",
      "isDebit": false,
      "isActualDemand": true,
      "order": 3
    },
    {
      "category": "TAX",
      "service": "FIRENOC",
      "name": "firenoc taxes",
      "code": "FIRENOC_TAXES",
      "isDebit": false,
      "isActualDemand": true,
      "order": 4
    },
    {
      "category": "TAX",
      "service": "FIRENOC",
      "name": "firenoc roundoff",
      "code": "FIRENOC_ROUNDOFF",
      "isDebit": false,
      "isActualDemand": true,
      "order": 1
    },
    {
      "category": "TAX",
      "service": "TX.No_Dues_Certificate",
      "name": "TX.NO_DUES_CERTIFICATE_TAX",
      "code": "TX.NO_DUES_CERTIFICATE_TAX",
      "isDebit": false,
      "isActualDemand":  true,
      "order": "1"
    },
    {
      "category": "CHARGES",
      "service": "TX.No_Dues_Certificate",
      "name": "TX.NO_DUES_CERTIFICATE_FIELD_FEE",
      "code": "TX.NO_DUES_CERTIFICATE_FIELD_FEE",
      "isDebit": false,
      "isActualDemand":  false,
      "order": "0"
    },
    {
      "category": "TAX",
      "service": "ADVT.Hoardings",
      "name": "ADVT.HOARDINGS_TAX",
      "code": "ADVT.HOARDINGS_TAX",
      "isDebit": false,
      "isActualDemand":  true,
      "order": "1"
    },
    {
      "category": "CHARGES",
      "service": "ADVT.Hoardings",
      "name": "ADVT.HOARDINGS_FIELD_FEE",
      "code": "ADVT.HOARDINGS_FIELD_FEE",
      "isDebit": false,
      "isActualDemand":  false,
      "order": "0"
    },
    {
      "category": "TAX",
      "service": "ADVT.Unipolls",
      "name": "ADVT.UNIPOLLS_TAX",
      "code": "ADVT.UNIPOLLS_TAX",
      "isDebit": false,
      "isActualDemand":  true,
      "order": "1"
    },
    {
      "category": "CHARGES",
      "service": "ADVT.Unipolls",
      "name": "ADVT.UNIPOLLS_FIELD_FEE",
      "code": "ADVT.UNIPOLLS_FIELD_FEE",
      "isDebit": false,
      "isActualDemand":  false,
      "order": "0"
    },
    {
      "category": "TAX",
      "service": "RT.Municipal_Shops_Rent",
      "name": "RT.MUNICIPAL_SHOPS_RENT_TAX",
      "code": "RT.MUNICIPAL_SHOPS_RENT_TAX",
      "isDebit": false,
      "isActualDemand":  true,
      "order": "1"
    },
    {
      "category": "CHARGES",
      "service": "RT.Municipal_Shops_Rent",
      "name": "RT.MUNICIPAL_SHOPS_RENT_FIELD_FEE",
      "code": "RT.MUNICIPAL_SHOPS_RENT_FIELD_FEE",
      "isDebit": false,
      "isActualDemand":  false,
      "order": "0"
    },
    {
      "category": "TAX",
      "service": "RT.Land_Rent",
      "name": "RT.LAND_RENT_TAX",
      "code": "RT.LAND_RENT_TAX",
      "isDebit": false,
      "isActualDemand":  true,
      "order": "1"
    },
    {
      "category": "CHARGES",
      "service": "RT.Land_Rent",
      "name": "RT.LAND_RENT_FIELD_FEE",
      "code": "RT.LAND_RENT_FIELD_FEE",
      "isDebit": false,
      "isActualDemand":  false,
      "order": "0"
    },
    {
      "category": "TAX",
      "service": "RT.Tower_Rent",
      "name": "RT.TOWER_RENT_TAX",
      "code": "RT.TOWER_RENT_TAX",
      "isDebit": false,
      "isActualDemand":  true,
      "order": "1"
    },
    {
      "category": "CHARGES",
      "service": "RT.Tower_Rent",
      "name": "RT.TOWER_RENT_FIELD_FEE",
      "code": "RT.TOWER_RENT_FIELD_FEE",
      "isDebit": false,
      "isActualDemand":  false,
      "order": "0"
    },
    {
      "category": "TAX",
      "service": "RT.Parking_Fee",
      "name": "RT.PARKING_FEE_TAX",
      "code": "RT.PARKING_FEE_TAX",
      "isDebit": false,
      "isActualDemand":  true,
      "order": "1"
    },
    {
      "category": "CHARGES",
      "service": "RT.Parking_Fee",
      "name": "RT.PARKING_FEE_FIELD_FEE",
      "code": "RT.PARKING_FEE_FIELD_FEE",
      "isDebit": false,
      "isActualDemand":  false,
      "order": "0"
    },
    {
      "category": "TAX",
      "service": "RT.Jamin_Theka",
      "name": "RT.JAMIN_THEKA_TAX",
      "code": "RT.JAMIN_THEKA_TAX",
      "isDebit": false,
      "isActualDemand":  true,
      "order": "1"
    },
    {
      "category": "CHARGES",
      "service": "RT.Jamin_Theka",
      "name": "RT.JAMIN_THEKA_FIELD_FEE",
      "code": "RT.JAMIN_THEKA_FIELD_FEE",
      "isDebit": false,
      "isActualDemand":  false,
      "order": "0"
    },
    {
      "category": "TAX",
      "service": "ADMN.Election_rally_fees",
      "name": "ADMN.ELECTION_RALLY_FEES_TAX",
      "code": "ADMN.ELECTION_RALLY_FEES_TAX",
      "isDebit": false,
      "isActualDemand":  true,
      "order": "1"
    },
    {
      "category": "CHARGES",
      "service": "ADMN.Election_rally_fees",
      "name": "ADMN.ELECTION_RALLY_FEES_FIELD_FEE",
      "code": "ADMN.ELECTION_RALLY_FEES_FIELD_FEE",
      "isDebit": false,
      "isActualDemand":  false,
      "order": "0"
    },
    {
      "category": "TAX",
      "service": "ADMN.Parking_during_election",
      "name": "ADMN.PARKING_DURING_ELECTION_TAX",
      "code": "ADMN.PARKING_DURING_ELECTION_TAX",
      "isDebit": false,
      "isActualDemand":  true,
      "order": "1"
    },
    {
      "category": "CHARGES",
      "service": "ADMN.Parking_during_election",
      "name": "ADMN.PARKING_DURING_ELECTION_FIELD_FEE",
      "code": "ADMN.PARKING_DURING_ELECTION_FIELD_FEE",
      "isDebit": false,
      "isActualDemand":  false,
      "order": "0"
    },
    {
      "category": "TAX",
      "service": "ADMN.Road_show",
      "name": "ADMN.ROAD_SHOW_TAX",
      "code": "ADMN.ROAD_SHOW_TAX",
      "isDebit": false,
      "isActualDemand":  true,
      "order": "1"
    },
    {
      "category": "CHARGES",
      "service": "ADMN.Road_show",
      "name": "ADMN.ROAD_SHOW_FIELD_FEE",
      "code": "ADMN.ROAD_SHOW_FIELD_FEE",
      "isDebit": false,
      "isActualDemand":  false,
      "order": "0"
    },
    {
      "category": "TAX",
      "service": "FN.Advance_Provident_Fund",
      "name": "FN.ADVANCE_PROVIDENT_FUND_TAX",
      "code": "FN.ADVANCE_PROVIDENT_FUND_TAX",
      "isDebit": false,
      "isActualDemand":  true,
      "order": "1"
    },
    {
      "category": "CHARGES",
      "service": "FN.Advance_Provident_Fund",
      "name": "FN.ADVANCE_PROVIDENT_FUND_FIELD_FEE",
      "code": "FN.ADVANCE_PROVIDENT_FUND_FIELD_FEE",
      "isDebit": false,
      "isActualDemand":  false,
      "order": "0"
    },
    {
      "category": "TAX",
      "service": "ST.Stationary_Not_Income",
      "name": "ST.STATIONARY_NOT_INCOME_TAX",
      "code": "ST.STATIONARY_NOT_INCOME_TAX",
      "isDebit": false,
      "isActualDemand":  true,
      "order": "1"
    },
    {
      "category": "CHARGES",
      "service": "ST.Stationary_Not_Income",
      "name": "ST.STATIONARY_NOT_INCOME_FIELD_FEE",
      "code": "ST.STATIONARY_NOT_INCOME_FIELD_FEE",
      "isDebit": false,
      "isActualDemand":  false,
      "order": "0"
    },
    {
      "category": "TAX",
      "service": "ST.Expenditure_santitation_Not_Income",
      "name": "ST.EXPENDITURE_SANTITATION_NOT_INCOME_TAX",
      "code": "ST.EXPENDITURE_SANTITATION_NOT_INCOME_TAX",
      "isDebit": false,
      "isActualDemand":  true,
      "order": "1"
    },
    {
      "category": "CHARGES",
      "service": "ST.Expenditure_santitation_Not_Income",
      "name": "ST.EXPENDITURE_SANTITATION_NOT_INCOME_FIELD_FEE",
      "code": "ST.EXPENDITURE_SANTITATION_NOT_INCOME_FIELD_FEE",
      "isDebit": false,
      "isActualDemand":  false,
      "order": "0"
    },
    {
      "category": "TAX",
      "service": "CH.Santitation_dumping_garbage",
      "name": "CH.SANTITATION_DUMPING_GARBAGE_TAX",
      "code": "CH.SANTITATION_DUMPING_GARBAGE_TAX",
      "isDebit": false,
      "isActualDemand":  true,
      "order": "1"
    },
    {
      "category": "CHARGES",
      "service": "CH.Santitation_dumping_garbage",
      "name": "CH.SANTITATION_DUMPING_GARBAGE_FIELD_FEE",
      "code": "CH.SANTITATION_DUMPING_GARBAGE_FIELD_FEE",
      "isDebit": false,
      "isActualDemand":  false,
      "order": "0"
    },
    {
      "category": "TAX",
      "service": "FTP.Telecom_tower_fees",
      "name": "FTP.TELECOM_TOWER_FEES_TAX",
      "code": "FTP.TELECOM_TOWER_FEES_TAX",
      "isDebit": false,
      "isActualDemand":  true,
      "order": "1"
    },
    {
      "category": "CHARGES",
      "service": "FTP.Telecom_tower_fees",
      "name": "FTP.TELECOM_TOWER_FEES_FIELD_FEE",
      "code": "FTP.TELECOM_TOWER_FEES_FIELD_FEE",
      "isDebit": false,
      "isActualDemand":  false,
      "order": "0"
    },
    {
      "category": "TAX",
      "service": "TX.Electricity_Chungi",
      "name": "TX.ELECTRICITY_CHUNGI_TAX",
      "code": "TX.ELECTRICITY_CHUNGI_TAX",
      "isDebit": false,
      "isActualDemand":  true,
      "order": "1"
    },
    {
      "category": "CHARGES",
      "service": "TX.Electricity_Chungi",
      "name": "TX.ELECTRICITY_CHUNGI_FIELD_FEE",
      "code": "TX.ELECTRICITY_CHUNGI_FIELD_FEE",
      "isDebit": false,
      "isActualDemand":  false,
      "order": "0"
    },
    {
      "category": "TAX",
      "service": "FTP.Draftsmen_fees",
      "name": "FTP.DRAFTSMEN_FEES_TAX",
      "code": "FTP.DRAFTSMEN_FEES_TAX",
      "isDebit": false,
      "isActualDemand":  true,
      "order": "1"
    },
    {
      "category": "CHARGES",
      "service": "FTP.Draftsmen_fees",
      "name": "FTP.DRAFTSMEN_FEES_FIELD_FEE",
      "code": "FTP.DRAFTSMEN_FEES_FIELD_FEE",
      "isDebit": false,
      "isActualDemand":  false,
      "order": "0"
    },
    {
      "category": "TAX",
      "service": "FTP.Compremasing_fees",
      "name": "FTP.COMPREMASING_FEES_TAX",
      "code": "FTP.COMPREMASING_FEES_TAX",
      "isDebit": false,
      "isActualDemand":  true,
      "order": "1"
    },
    {
      "category": "CHARGES",
      "service": "FTP.Compremasing_fees",
      "name": "FTP.COMPREMASING_FEES_FIELD_FEE",
      "code": "FTP.COMPREMASING_FEES_FIELD_FEE",
      "isDebit": false,
      "isActualDemand":  false,
      "order": "0"
    },
    {
      "category": "TAX",
      "service": "FTP.Building_planner_renew",
      "name": "FTP.BUILDING_PLANNER_RENEW_TAX",
      "code": "FTP.BUILDING_PLANNER_RENEW_TAX",
      "isDebit": false,
      "isActualDemand":  true,
      "order": "1"
    },
    {
      "category": "CHARGES",
      "service": "FTP.Building_planner_renew",
      "name": "FTP.BUILDING_PLANNER_RENEW_FIELD_FEE",
      "code": "FTP.BUILDING_PLANNER_RENEW_FIELD_FEE",
      "isDebit": false,
      "isActualDemand":  false,
      "order": "0"
    },
    {
      "category": "TAX",
      "service": "NKS.Naksha_samjota_fees",
      "name": "NKS.NAKSHA_SAMJOTA_FEES_TAX",
      "code": "NKS.NAKSHA_SAMJOTA_FEES_TAX",
      "isDebit": false,
      "isActualDemand":  true,
      "order": "1"
    },
    {
      "category": "CHARGES",
      "service": "NKS.Naksha_samjota_fees",
      "name": "NKS.NAKSHA_SAMJOTA_FEES_FIELD_FEE",
      "code": "NKS.NAKSHA_SAMJOTA_FEES_FIELD_FEE",
      "isDebit": false,
      "isActualDemand":  false,
      "order": "0"
    },
    {
      "category": "TAX",
      "service": "NKS.Naksha_changes",
      "name": "NKS.NAKSHA_CHANGES_TAX",
      "code": "NKS.NAKSHA_CHANGES_TAX",
      "isDebit": false,
      "isActualDemand":  true,
      "order": "1"
    },
    {
      "category": "CHARGES",
      "service": "NKS.Naksha_changes",
      "name": "NKS.NAKSHA_CHANGES_FIELD_FEE",
      "code": "NKS.NAKSHA_CHANGES_FIELD_FEE",
      "isDebit": false,
      "isActualDemand":  false,
      "order": "0"
    },
    {
      "category": "TAX",
      "service": "FTP.License_fees_building_branch",
      "name": "FTP.LICENSE_FEES_BUILDING_BRANCH_TAX",
      "code": "FTP.LICENSE_FEES_BUILDING_BRANCH_TAX",
      "isDebit": false,
      "isActualDemand":  true,
      "order": "1"
    },
    {
      "category": "CHARGES",
      "service": "FTP.License_fees_building_branch",
      "name": "FTP.LICENSE_FEES_BUILDING_BRANCH_FIELD_FEE",
      "code": "FTP.LICENSE_FEES_BUILDING_BRANCH_FIELD_FEE",
      "isDebit": false,
      "isActualDemand":  false,
      "order": "0"
    },
    {
      "category": "TAX",
      "service": "OM.Water_connection/disconnection_fees",
      "name": "OM.WATER_CONNECTION/DISCONNECTION_FEES_TAX",
      "code": "OM.WATER_CONNECTION/DISCONNECTION_FEES_TAX",
      "isDebit": false,
      "isActualDemand":  true,
      "order": "1"
    },
    {
      "category": "CHARGES",
      "service": "OM.Water_connection/disconnection_fees",
      "name": "OM.WATER_CONNECTION/DISCONNECTION_FEES_FIELD_FEE",
      "code": "OM.WATER_CONNECTION/DISCONNECTION_FEES_FIELD_FEE",
      "isDebit": false,
      "isActualDemand":  false,
      "order": "0"
    },
    {
      "category": "TAX",
      "service": "NKS.Naksha_renew_fees",
      "name": "NKS.NAKSHA_RENEW_FEES_TAX",
      "code": "NKS.NAKSHA_RENEW_FEES_TAX",
      "isDebit": false,
      "isActualDemand":  true,
      "order": "1"
    },
    {
      "category": "CHARGES",
      "service": "NKS.Naksha_renew_fees",
      "name": "NKS.NAKSHA_RENEW_FEES_FIELD_FEE",
      "code": "NKS.NAKSHA_RENEW_FEES_FIELD_FEE",
      "isDebit": false,
      "isActualDemand":  false,
      "order": "0"
    },
    {
      "category": "TAX",
      "service": "NKS.NOC/Completion_of_building_approval",
      "name": "NKS.NOC/COMPLETION_OF_BUILDING_APPROVAL_TAX",
      "code": "NKS.NOC/COMPLETION_OF_BUILDING_APPROVAL_TAX",
      "isDebit": false,
      "isActualDemand":  true,
      "order": "1"
    },
    {
      "category": "CHARGES",
      "service": "NKS.NOC/Completion_of_building_approval",
      "name": "NKS.NOC/COMPLETION_OF_BUILDING_APPROVAL_FIELD_FEE",
      "code": "NKS.NOC/COMPLETION_OF_BUILDING_APPROVAL_FIELD_FEE",
      "isDebit": false,
      "isActualDemand":  false,
      "order": "0"
    },
    {
      "category": "TAX",
      "service": "NKS.Alteration_additional_charge",
      "name": "NKS.ALTERATION_ADDITIONAL_CHARGE_TAX",
      "code": "NKS.ALTERATION_ADDITIONAL_CHARGE_TAX",
      "isDebit": false,
      "isActualDemand":  true,
      "order": "1"
    },
    {
      "category": "CHARGES",
      "service": "NKS.Alteration_additional_charge",
      "name": "NKS.ALTERATION_ADDITIONAL_CHARGE_FIELD_FEE",
      "code": "NKS.ALTERATION_ADDITIONAL_CHARGE_FIELD_FEE",
      "isDebit": false,
      "isActualDemand":  false,
      "order": "0"
    },
    {
      "category": "TAX",
      "service": "NKS.2_year_time_limit_of_Renewal_Building_Naksha",
      "name": "NKS.2_YEAR_TIME_LIMIT_OF_RENEWAL_BUILDING_NAKSHA_TAX",
      "code": "NKS.2_YEAR_TIME_LIMIT_OF_RENEWAL_BUILDING_NAKSHA_TAX",
      "isDebit": false,
      "isActualDemand":  true,
      "order": "1"
    },
    {
      "category": "CHARGES",
      "service": "NKS.2_year_time_limit_of_Renewal_Building_Naksha",
      "name": "NKS.2_YEAR_TIME_LIMIT_OF_RENEWAL_BUILDING_NAKSHA_FIELD_FEE",
      "code": "NKS.2_YEAR_TIME_LIMIT_OF_RENEWAL_BUILDING_NAKSHA_FIELD_FEE",
      "isDebit": false,
      "isActualDemand":  false,
      "order": "0"
    },
    {
      "category": "TAX",
      "service": "FTP.Leave_encashment_and_gratuty",
      "name": "FTP.LEAVE_ENCASHMENT_AND_GRATUTY_TAX",
      "code": "FTP.LEAVE_ENCASHMENT_AND_GRATUTY_TAX",
      "isDebit": false,
      "isActualDemand":  true,
      "order": "1"
    },
    {
      "category": "CHARGES",
      "service": "FTP.Leave_encashment_and_gratuty",
      "name": "FTP.LEAVE_ENCASHMENT_AND_GRATUTY_FIELD_FEE",
      "code": "FTP.LEAVE_ENCASHMENT_AND_GRATUTY_FIELD_FEE",
      "isDebit": false,
      "isActualDemand":  false,
      "order": "0"
    },
    {
      "category": "TAX",
      "service": "CH.Plastic_Challan",
      "name": "CH.PLASTIC_CHALLAN_TAX",
      "code": "CH.PLASTIC_CHALLAN_TAX",
      "isDebit": false,
      "isActualDemand":  true,
      "order": "1"
    },
    {
      "category": "CHARGES",
      "service": "CH.Plastic_Challan",
      "name": "CH.PLASTIC_CHALLAN_FIELD_FEE",
      "code": "CH.PLASTIC_CHALLAN_FIELD_FEE",
      "isDebit": false,
      "isActualDemand":  false,
      "order": "0"
    },
    {
      "category": "TAX",
      "service": "CH.Rehri_Challan",
      "name": "CH.REHRI_CHALLAN_TAX",
      "code": "CH.REHRI_CHALLAN_TAX",
      "isDebit": false,
      "isActualDemand":  true,
      "order": "1"
    },
    {
      "category": "CHARGES",
      "service": "CH.Rehri_Challan",
      "name": "CH.REHRI_CHALLAN_FIELD_FEE",
      "code": "CH.REHRI_CHALLAN_FIELD_FEE",
      "isDebit": false,
      "isActualDemand":  false,
      "order": "0"
    },
    {
      "category": "TAX",
      "service": "CH.Challan_for_Misuse_of_Water",
      "name": "CH.CHALLAN_FOR_MISUSE_OF_WATER_TAX",
      "code": "CH.CHALLAN_FOR_MISUSE_OF_WATER_TAX",
      "isDebit": false,
      "isActualDemand":  true,
      "order": "1"
    },
    {
      "category": "CHARGES",
      "service": "CH.Challan_for_Misuse_of_Water",
      "name": "CH.CHALLAN_FOR_MISUSE_OF_WATER_FIELD_FEE",
      "code": "CH.CHALLAN_FOR_MISUSE_OF_WATER_FIELD_FEE",
      "isDebit": false,
      "isActualDemand":  false,
      "order": "0"
    },
    {
      "category": "TAX",
      "service": "CH.Dengue_Challan",
      "name": "CH.DENGUE_CHALLAN_TAX",
      "code": "CH.DENGUE_CHALLAN_TAX",
      "isDebit": false,
      "isActualDemand":  true,
      "order": "1"
    },
    {
      "category": "CHARGES",
      "service": "CH.Dengue_Challan",
      "name": "CH.DENGUE_CHALLAN_FIELD_FEE",
      "code": "CH.DENGUE_CHALLAN_FIELD_FEE",
      "isDebit": false,
      "isActualDemand":  false,
      "order": "0"
    },
    {
      "category": "TAX",
      "service": "CH.Littering_Challan",
      "name": "CH.LITTERING_CHALLAN_TAX",
      "code": "CH.LITTERING_CHALLAN_TAX",
      "isDebit": false,
      "isActualDemand":  true,
      "order": "1"
    },
    {
      "category": "CHARGES",
      "service": "CH.Littering_Challan",
      "name": "CH.LITTERING_CHALLAN_FIELD_FEE",
      "code": "CH.LITTERING_CHALLAN_FIELD_FEE",
      "isDebit": false,
      "isActualDemand":  false,
      "order": "0"
    },
    {
      "category": "TAX",
      "service": "SNT.Licence_Pure_food",
      "name": "SNT.LICENCE_PURE_FOOD_TAX",
      "code": "SNT.LICENCE_PURE_FOOD_TAX",
      "isDebit": false,
      "isActualDemand":  true,
      "order": "1"
    },
    {
      "category": "CHARGES",
      "service": "SNT.Licence_Pure_food",
      "name": "SNT.LICENCE_PURE_FOOD_FIELD_FEE",
      "code": "SNT.LICENCE_PURE_FOOD_FIELD_FEE",
      "isDebit": false,
      "isActualDemand":  false,
      "order": "0"
    },
    {
      "category": "TAX",
      "service": "OTHER.Misc_Challans",
      "name": "OTHER.MISC_CHALLANS_TAX",
      "code": "OTHER.MISC_CHALLANS_TAX",
      "isDebit": false,
      "isActualDemand":  true,
      "order": "1"
    },
    {
      "category": "CHARGES",
      "service": "OTHER.Misc_Challans",
      "name": "OTHER.MISC_CHALLANS_FIELD_FEE",
      "code": "OTHER.MISC_CHALLANS_FIELD_FEE",
      "isDebit": false,
      "isActualDemand":  false,
      "order": "0"
    },
    {
      "category": "TAX",
      "service": "NKS.Regularisation_of_Buildings",
      "name": "NKS.REGULARISATION_OF_BUILDINGS_TAX",
      "code": "NKS.REGULARISATION_OF_BUILDINGS_TAX",
      "isDebit": false,
      "isActualDemand":  true,
      "order": "1"
    },
    {
      "category": "CHARGES",
      "service": "NKS.Regularisation_of_Buildings",
      "name": "NKS.REGULARISATION_OF_BUILDINGS_FIELD_FEE",
      "code": "NKS.REGULARISATION_OF_BUILDINGS_FIELD_FEE",
      "isDebit": false,
      "isActualDemand":  false,
      "order": "0"
    },
    {
      "category": "TAX",
      "service": "WF.Contractor_Enlistment",
      "name": "WF.CONTRACTOR_ENLISTMENT_TAX",
      "code": "WF.CONTRACTOR_ENLISTMENT_TAX",
      "isDebit": false,
      "isActualDemand":  true,
      "order": "1"
    },
    {
      "category": "CHARGES",
      "service": "WF.Contractor_Enlistment",
      "name": "WF.CONTRACTOR_ENLISTMENT_FIELD_FEE",
      "code": "WF.CONTRACTOR_ENLISTMENT_FIELD_FEE",
      "isDebit": false,
      "isActualDemand":  false,
      "order": "0"
    },
    {
      "category": "TAX",
      "service": "WF.Tender Form Fee",
      "name": "WF.TENDER FORM FEE_TAX",
      "code": "WF.TENDER FORM FEE_TAX",
      "isDebit": false,
      "isActualDemand":  true,
      "order": "1"
    },
    {
      "category": "CHARGES",
      "service": "WF.Tender Form Fee",
      "name": "WF.TENDER FORM FEE_FIELD_FEE",
      "code": "WF.TENDER FORM FEE_FIELD_FEE",
      "isDebit": false,
      "isActualDemand":  false,
      "order": "0"
    },
    {
      "category": "TAX",
      "service": "TB.Advertisement_fee",
      "name": "TB.ADVERTISEMENT_FEE_TAX",
      "code": "TB.ADVERTISEMENT_FEE_TAX",
      "isDebit": false,
      "isActualDemand":  true,
      "order": "1"
    },
    {
      "category": "CHARGES",
      "service": "TB.Advertisement_fee",
      "name": "TB.ADVERTISEMENT_FEE_FIELD_FEE",
      "code": "TB.ADVERTISEMENT_FEE_FIELD_FEE",
      "isDebit": false,
      "isActualDemand":  false,
      "order": "0"
    },
    {
      "category": "TAX",
      "service": "TB.Tehbazaari",
      "name": "TB.TEHBAZAARI_TAX",
      "code": "TB.TEHBAZAARI_TAX",
      "isDebit": false,
      "isActualDemand":  true,
      "order": "1"
    },
    {
      "category": "CHARGES",
      "service": "TB.Tehbazaari",
      "name": "TB.TEHBAZAARI_FIELD_FEE",
      "code": "TB.TEHBAZAARI_FIELD_FEE",
      "isDebit": false,
      "isActualDemand":  false,
      "order": "0"
    },
    {
      "category": "TAX",
      "service": "FN.PF_transfer_(Accounts)",
      "name": "FN.PF_TRANSFER_(ACCOUNTS)_TAX",
      "code": "FN.PF_TRANSFER_(ACCOUNTS)_TAX",
      "isDebit": false,
      "isActualDemand":  true,
      "order": "1"
    },
    {
      "category": "CHARGES",
      "service": "FN.PF_transfer_(Accounts)",
      "name": "FN.PF_TRANSFER_(ACCOUNTS)_FIELD_FEE",
      "code": "FN.PF_TRANSFER_(ACCOUNTS)_FIELD_FEE",
      "isDebit": false,
      "isActualDemand":  false,
      "order": "0"
    },
    {
      "category": "TAX",
      "service": "TX.TS1_copy_register_for_old_survey",
      "name": "TX.TS1_COPY_REGISTER_FOR_OLD_SURVEY_TAX",
      "code": "TX.TS1_COPY_REGISTER_FOR_OLD_SURVEY_TAX",
      "isDebit": false,
      "isActualDemand":  true,
      "order": "1"
    },
    {
      "category": "CHARGES",
      "service": "TX.TS1_copy_register_for_old_survey",
      "name": "TX.TS1_COPY_REGISTER_FOR_OLD_SURVEY_FIELD_FEE",
      "code": "TX.TS1_COPY_REGISTER_FOR_OLD_SURVEY_FIELD_FEE",
      "isDebit": false,
      "isActualDemand":  false,
      "order": "0"
    },
    {
      "category": "TAX",
      "service": "TX.Transfer_Property_Fees",
      "name": "TX.TRANSFER_PROPERTY_FEES_TAX",
      "code": "TX.TRANSFER_PROPERTY_FEES_TAX",
      "isDebit": false,
      "isActualDemand":  true,
      "order": "1"
    },
    {
      "category": "CHARGES",
      "service": "TX.Transfer_Property_Fees",
      "name": "TX.TRANSFER_PROPERTY_FEES_FIELD_FEE",
      "code": "TX.TRANSFER_PROPERTY_FEES_FIELD_FEE",
      "isDebit": false,
      "isActualDemand":  false,
      "order": "0"
    },
    {
      "category": "TAX",
      "service": "ADMN.RTI",
      "name": "ADMN.RTI_TAX",
      "code": "ADMN.RTI_TAX",
      "isDebit": false,
      "isActualDemand":  true,
      "order": "1"
    },
    {
      "category": "CHARGES",
      "service": "ADMN.RTI",
      "name": "ADMN.RTI_FIELD_FEE",
      "code": "ADMN.RTI_FIELD_FEE",
      "isDebit": false,
      "isActualDemand":  false,
      "order": "0"
    },
    {
      "category": "TAX",
      "service": "ADMN.No_Dues_Certificate",
      "name": "ADMN.NO_DUES_CERTIFICATE_TAX",
      "code": "ADMN.NO_DUES_CERTIFICATE_TAX",
      "isDebit": false,
      "isActualDemand":  true,
      "order": "1"
    },
    {
      "category": "CHARGES",
      "service": "ADMN.No_Dues_Certificate",
      "name": "ADMN.NO_DUES_CERTIFICATE_FIELD_FEE",
      "code": "ADMN.NO_DUES_CERTIFICATE_FIELD_FEE",
      "isDebit": false,
      "isActualDemand":  false,
      "order": "0"
    },
    {
      "category": "TAX",
      "service": "FTP.Architect_license_fee",
      "name": "FTP.ARCHITECT_LICENSE_FEE_TAX",
      "code": "FTP.ARCHITECT_LICENSE_FEE_TAX",
      "isDebit": false,
      "isActualDemand":  true,
      "order": "1"
    },
    {
      "category": "CHARGES",
      "service": "FTP.Architect_license_fee",
      "name": "FTP.ARCHITECT_LICENSE_FEE_FIELD_FEE",
      "code": "FTP.ARCHITECT_LICENSE_FEE_FIELD_FEE",
      "isDebit": false,
      "isActualDemand":  false,
      "order": "0"
    },
    {
      "category": "TAX",
      "service": "Tehbazaari Fee.Challan_Under_section_156",
      "name": "TEHBAZAARI FEE.CHALLAN_UNDER_SECTION_156_TAX",
      "code": "TEHBAZAARI FEE.CHALLAN_UNDER_SECTION_156_TAX",
      "isDebit": false,
      "isActualDemand":  true,
      "order": "1"
    },
    {
      "category": "CHARGES",
      "service": "Tehbazaari Fee.Challan_Under_section_156",
      "name": "TEHBAZAARI FEE.CHALLAN_UNDER_SECTION_156_FIELD_FEE",
      "code": "TEHBAZAARI FEE.CHALLAN_UNDER_SECTION_156_FIELD_FEE",
      "isDebit": false,
      "isActualDemand":  false,
      "order": "0"
    },
    {
      "category": "TAX",
      "service": "FN.Recovery_employee/contractor",
      "name": "FN.RECOVERY_EMPLOYEE/CONTRACTOR_TAX",
      "code": "FN.RECOVERY_EMPLOYEE/CONTRACTOR_TAX",
      "isDebit": false,
      "isActualDemand":  true,
      "order": "1"
    },
    {
      "category": "CHARGES",
      "service": "FN.Recovery_employee/contractor",
      "name": "FN.RECOVERY_EMPLOYEE/CONTRACTOR_FIELD_FEE",
      "code": "FN.RECOVERY_EMPLOYEE/CONTRACTOR_FIELD_FEE",
      "isDebit": false,
      "isActualDemand":  false,
      "order": "0"
    },
    {
      "category": "TAX",
      "service": "FN.Grants_cheque",
      "name": "FN.GRANTS_CHEQUE_TAX",
      "code": "FN.GRANTS_CHEQUE_TAX",
      "isDebit": false,
      "isActualDemand":  true,
      "order": "1"
    },
    {
      "category": "CHARGES",
      "service": "FN.Grants_cheque",
      "name": "FN.GRANTS_CHEQUE_FIELD_FEE",
      "code": "FN.GRANTS_CHEQUE_FIELD_FEE",
      "isDebit": false,
      "isActualDemand":  false,
      "order": "0"
    },
    {
      "category": "TAX",
      "service": "OTHER.No_due_certificate_electricity",
      "name": "OTHER.NO_DUE_CERTIFICATE_ELECTRICITY_TAX",
      "code": "OTHER.NO_DUE_CERTIFICATE_ELECTRICITY_TAX",
      "isDebit": false,
      "isActualDemand":  true,
      "order": "1"
    },
    {
      "category": "CHARGES",
      "service": "OTHER.No_due_certificate_electricity",
      "name": "OTHER.NO_DUE_CERTIFICATE_ELECTRICITY_FIELD_FEE",
      "code": "OTHER.NO_DUE_CERTIFICATE_ELECTRICITY_FIELD_FEE",
      "isDebit": false,
      "isActualDemand":  false,
      "order": "0"
    },
    {
      "category": "TAX",
      "service": "OTHER.registery_and_bank_loan",
      "name": "OTHER.REGISTERY_AND_BANK_LOAN_TAX",
      "code": "OTHER.REGISTERY_AND_BANK_LOAN_TAX",
      "isDebit": false,
      "isActualDemand":  true,
      "order": "1"
    },
    {
      "category": "CHARGES",
      "service": "OTHER.registery_and_bank_loan",
      "name": "OTHER.REGISTERY_AND_BANK_LOAN_FIELD_FEE",
      "code": "OTHER.REGISTERY_AND_BANK_LOAN_FIELD_FEE",
      "isDebit": false,
      "isActualDemand":  false,
      "order": "0"
    },
    {
      "category": "TAX",
      "service": "CH.SBM_garbage_plastic_polythene_challan",
      "name": "CH.SBM_GARBAGE_PLASTIC_POLYTHENE_CHALLAN_TAX",
      "code": "CH.SBM_GARBAGE_PLASTIC_POLYTHENE_CHALLAN_TAX",
      "isDebit": false,
      "isActualDemand":  true,
      "order": "1"
    },
    {
      "category": "CHARGES",
      "service": "CH.SBM_garbage_plastic_polythene_challan",
      "name": "CH.SBM_GARBAGE_PLASTIC_POLYTHENE_CHALLAN_FIELD_FEE",
      "code": "CH.SBM_GARBAGE_PLASTIC_POLYTHENE_CHALLAN_FIELD_FEE",
      "isDebit": false,
      "isActualDemand":  false,
      "order": "0"
    },
    {
      "category": "TAX",
      "service": "SNT.Dead_animals_contract",
      "name": "SNT.DEAD_ANIMALS_CONTRACT_TAX",
      "code": "SNT.DEAD_ANIMALS_CONTRACT_TAX",
      "isDebit": false,
      "isActualDemand":  true,
      "order": "1"
    },
    {
      "category": "CHARGES",
      "service": "SNT.Dead_animals_contract",
      "name": "SNT.DEAD_ANIMALS_CONTRACT_FIELD_FEE",
      "code": "SNT.DEAD_ANIMALS_CONTRACT_FIELD_FEE",
      "isDebit": false,
      "isActualDemand":  false,
      "order": "0"
    },
    {
      "category": "TAX",
      "service": "FN.GPF",
      "name": "FN.GPF_TAX",
      "code": "FN.GPF_TAX",
      "isDebit": false,
      "isActualDemand":  true,
      "order": "1"
    },
    {
      "category": "CHARGES",
      "service": "FN.GPF",
      "name": "FN.GPF_FIELD_FEE",
      "code": "FN.GPF_FIELD_FEE",
      "isDebit": false,
      "isActualDemand":  false,
      "order": "0"
    },
    {
      "category": "TAX",
      "service": "FN.CPF_received_check",
      "name": "FN.CPF_RECEIVED_CHECK_TAX",
      "code": "FN.CPF_RECEIVED_CHECK_TAX",
      "isDebit": false,
      "isActualDemand":  true,
      "order": "1"
    },
    {
      "category": "CHARGES",
      "service": "FN.CPF_received_check",
      "name": "FN.CPF_RECEIVED_CHECK_FIELD_FEE",
      "code": "FN.CPF_RECEIVED_CHECK_FIELD_FEE",
      "isDebit": false,
      "isActualDemand":  false,
      "order": "0"
    },
    {
      "category": "TAX",
      "service": "RT.Tower_Installation",
      "name": "RT.TOWER_INSTALLATION_TAX",
      "code": "RT.TOWER_INSTALLATION_TAX",
      "isDebit": false,
      "isActualDemand":  true,
      "order": "1"
    },
    {
      "category": "CHARGES",
      "service": "RT.Tower_Installation",
      "name": "RT.TOWER_INSTALLATION_FIELD_FEE",
      "code": "RT.TOWER_INSTALLATION_FIELD_FEE",
      "isDebit": false,
      "isActualDemand":  false,
      "order": "0"
    },
    {
      "category": "TAX",
      "service": "RT.Tower_Annual_Rent",
      "name": "RT.TOWER_ANNUAL_RENT_TAX",
      "code": "RT.TOWER_ANNUAL_RENT_TAX",
      "isDebit": false,
      "isActualDemand":  true,
      "order": "1"
    },
    {
      "category": "CHARGES",
      "service": "RT.Tower_Annual_Rent",
      "name": "RT.TOWER_ANNUAL_RENT_FIELD_FEE",
      "code": "RT.TOWER_ANNUAL_RENT_FIELD_FEE",
      "isDebit": false,
      "isActualDemand":  false,
      "order": "0"
    },
    {
      "category": "TAX",
      "service": "CSS.cow_cess",
      "name": "CSS.COW_CESS_TAX",
      "code": "CSS.COW_CESS_TAX",
      "isDebit": false,
      "isActualDemand":  true,
      "order": "1"
    },
    {
      "category": "CHARGES",
      "service": "CSS.cow_cess",
      "name": "CSS.COW_CESS_FIELD_FEE",
      "code": "CSS.COW_CESS_FIELD_FEE",
      "isDebit": false,
      "isActualDemand":  false,
      "order": "0"
    },
    {
      "category": "TAX",
      "service": "CH.Cattle_Challan",
      "name": "CH.CATTLE_CHALLAN_TAX",
      "code": "CH.CATTLE_CHALLAN_TAX",
      "isDebit": false,
      "isActualDemand":  true,
      "order": "1"
    },
    {
      "category": "CHARGES",
      "service": "CH.Cattle_Challan",
      "name": "CH.CATTLE_CHALLAN_FIELD_FEE",
      "code": "CH.CATTLE_CHALLAN_FIELD_FEE",
      "isDebit": false,
      "isActualDemand":  false,
      "order": "0"
    },
    {
      "category": "TAX",
      "service": "TB.Rehri_Challan",
      "name": "TB.REHRI_CHALLAN_TAX",
      "code": "TB.REHRI_CHALLAN_TAX",
      "isDebit": false,
      "isActualDemand":  true,
      "order": "1"
    },
    {
      "category": "CHARGES",
      "service": "TB.Rehri_Challan",
      "name": "TB.REHRI_CHALLAN_FIELD_FEE",
      "code": "TB.REHRI_CHALLAN_FIELD_FEE",
      "isDebit": false,
      "isActualDemand":  false,
      "order": "0"
    },
    {
      "category": "TAX",
      "service": "LCF.Manual_Rikshaw",
      "name": "LCF.MANUAL_RIKSHAW_TAX",
      "code": "LCF.MANUAL_RIKSHAW_TAX",
      "isDebit": false,
      "isActualDemand":  true,
      "order": "1"
    },
    {
      "category": "CHARGES",
      "service": "LCF.Manual_Rikshaw",
      "name": "LCF.MANUAL_RIKSHAW_FIELD_FEE",
      "code": "LCF.MANUAL_RIKSHAW_FIELD_FEE",
      "isDebit": false,
      "isActualDemand":  false,
      "order": "0"
    },
    {
      "category": "TAX",
      "service": "CH.Dairy_Animals_Challan",
      "name": "CH.DAIRY_ANIMALS_CHALLAN_TAX",
      "code": "CH.DAIRY_ANIMALS_CHALLAN_TAX",
      "isDebit": false,
      "isActualDemand":  true,
      "order": "1"
    },
    {
      "category": "CHARGES",
      "service": "CH.Dairy_Animals_Challan",
      "name": "CH.DAIRY_ANIMALS_CHALLAN_FIELD_FEE",
      "code": "CH.DAIRY_ANIMALS_CHALLAN_FIELD_FEE",
      "isDebit": false,
      "isActualDemand":  false,
      "order": "0"
    },
    {
      "category": "TAX",
      "service": "CH.Bidi_&_Cigrette_Challan",
      "name": "CH.BIDI_&_CIGRETTE_CHALLAN_TAX",
      "code": "CH.BIDI_&_CIGRETTE_CHALLAN_TAX",
      "isDebit": false,
      "isActualDemand":  true,
      "order": "1"
    },
    {
      "category": "CHARGES",
      "service": "CH.Bidi_&_Cigrette_Challan",
      "name": "CH.BIDI_&_CIGRETTE_CHALLAN_FIELD_FEE",
      "code": "CH.BIDI_&_CIGRETTE_CHALLAN_FIELD_FEE",
      "isDebit": false,
      "isActualDemand":  false,
      "order": "0"
    },
    {
      "category": "TAX",
      "service": "RT.Community_Centre_Booking_Fee",
      "name": "RT.COMMUNITY_CENTRE_BOOKING_FEE_TAX",
      "code": "RT.COMMUNITY_CENTRE_BOOKING_FEE_TAX",
      "isDebit": false,
      "isActualDemand":  true,
      "order": "1"
    },
    {
      "category": "CHARGES",
      "service": "RT.Community_Centre_Booking_Fee",
      "name": "RT.COMMUNITY_CENTRE_BOOKING_FEE_FIELD_FEE",
      "code": "RT.COMMUNITY_CENTRE_BOOKING_FEE_FIELD_FEE",
      "isDebit": false,
      "isActualDemand":  false,
      "order": "0"
    },
    {
      "category": "TAX",
      "service": "RT.Commercial_Use_of_Municipal_Land",
      "name": "RT.COMMERCIAL_USE_OF_MUNICIPAL_LAND_TAX",
      "code": "RT.COMMERCIAL_USE_OF_MUNICIPAL_LAND_TAX",
      "isDebit": false,
      "isActualDemand":  true,
      "order": "1"
    },
    {
      "category": "CHARGES",
      "service": "RT.Commercial_Use_of_Municipal_Land",
      "name": "RT.COMMERCIAL_USE_OF_MUNICIPAL_LAND_FIELD_FEE",
      "code": "RT.COMMERCIAL_USE_OF_MUNICIPAL_LAND_FIELD_FEE",
      "isDebit": false,
      "isActualDemand":  false,
      "order": "0"
    },
    {
      "category": "TAX",
      "service": "RT.Street_Vendor",
      "name": "RT.STREET_VENDOR_TAX",
      "code": "RT.STREET_VENDOR_TAX",
      "isDebit": false,
      "isActualDemand":  true,
      "order": "1"
    },
    {
      "category": "CHARGES",
      "service": "RT.Street_Vendor",
      "name": "RT.STREET_VENDOR_FIELD_FEE",
      "code": "RT.STREET_VENDOR_FIELD_FEE",
      "isDebit": false,
      "isActualDemand":  false,
      "order": "0"
    },
    {
      "category": "TAX",
      "service": "FTP.Construction_Waste",
      "name": "FTP.CONSTRUCTION_WASTE_TAX",
      "code": "FTP.CONSTRUCTION_WASTE_TAX",
      "isDebit": false,
      "isActualDemand":  true,
      "order": "1"
    },
    {
      "category": "CHARGES",
      "service": "FTP.Construction_Waste",
      "name": "FTP.CONSTRUCTION_WASTE_FIELD_FEE",
      "code": "FTP.CONSTRUCTION_WASTE_FIELD_FEE",
      "isDebit": false,
      "isActualDemand":  false,
      "order": "0"
    },
    {
      "category": "TAX",
      "service": "FTP.Demolition_Waste",
      "name": "FTP.DEMOLITION_WASTE_TAX",
      "code": "FTP.DEMOLITION_WASTE_TAX",
      "isDebit": false,
      "isActualDemand":  true,
      "order": "1"
    },
    {
      "category": "CHARGES",
      "service": "FTP.Demolition_Waste",
      "name": "FTP.DEMOLITION_WASTE_FIELD_FEE",
      "code": "FTP.DEMOLITION_WASTE_FIELD_FEE",
      "isDebit": false,
      "isActualDemand":  false,
      "order": "0"
    },
    {
      "category": "TAX",
      "service": "SNT.clean_safai_sanitation",
      "name": "SNT.CLEAN_SAFAI_SANITATION_TAX",
      "code": "SNT.CLEAN_SAFAI_SANITATION_TAX",
      "isDebit": false,
      "isActualDemand":  true,
      "order": "1"
    },
    {
      "category": "CHARGES",
      "service": "SNT.clean_safai_sanitation",
      "name": "SNT.CLEAN_SAFAI_SANITATION_FIELD_FEE",
      "code": "SNT.CLEAN_SAFAI_SANITATION_FIELD_FEE",
      "isDebit": false,
      "isActualDemand":  false,
      "order": "0"
    },
    {
      "category": "TAX",
      "service": "OM.Plumber_License_Fee",
      "name": "OM.PLUMBER_LICENSE_FEE_TAX",
      "code": "OM.PLUMBER_LICENSE_FEE_TAX",
      "isDebit": false,
      "isActualDemand":  true,
      "order": "1"
    },
    {
      "category": "CHARGES",
      "service": "OM.Plumber_License_Fee",
      "name": "OM.PLUMBER_LICENSE_FEE_FIELD_FEE",
      "code": "OM.PLUMBER_LICENSE_FEE_FIELD_FEE",
      "isDebit": false,
      "isActualDemand":  false,
      "order": "0"
    },
    {
      "category": "TAX",
      "service": "ADVT.Light_Wala_Board",
      "name": "ADVT.LIGHT_WALA_BOARD_TAX",
      "code": "ADVT.LIGHT_WALA_BOARD_TAX",
      "isDebit": false,
      "isActualDemand":  true,
      "order": "1"
    },
    {
      "category": "CHARGES",
      "service": "ADVT.Light_Wala_Board",
      "name": "ADVT.LIGHT_WALA_BOARD_FIELD_FEE",
      "code": "ADVT.LIGHT_WALA_BOARD_FIELD_FEE",
      "isDebit": false,
      "isActualDemand":  false,
      "order": "0"
    },
    {
      "category": "TAX",
      "service": "ADVT.Wall_Paint_Advertisement",
      "name": "ADVT.WALL_PAINT_ADVERTISEMENT_TAX",
      "code": "ADVT.WALL_PAINT_ADVERTISEMENT_TAX",
      "isDebit": false,
      "isActualDemand":  true,
      "order": "1"
    },
    {
      "category": "CHARGES",
      "service": "ADVT.Wall_Paint_Advertisement",
      "name": "ADVT.WALL_PAINT_ADVERTISEMENT_FIELD_FEE",
      "code": "ADVT.WALL_PAINT_ADVERTISEMENT_FIELD_FEE",
      "isDebit": false,
      "isActualDemand":  false,
      "order": "0"
    },
    {
      "category": "TAX",
      "service": "ADVT.Gas_Balloon_Advertisement",
      "name": "ADVT.GAS_BALLOON_ADVERTISEMENT_TAX",
      "code": "ADVT.GAS_BALLOON_ADVERTISEMENT_TAX",
      "isDebit": false,
      "isActualDemand":  true,
      "order": "1"
    },
    {
      "category": "CHARGES",
      "service": "ADVT.Gas_Balloon_Advertisement",
      "name": "ADVT.GAS_BALLOON_ADVERTISEMENT_FIELD_FEE",
      "code": "ADVT.GAS_BALLOON_ADVERTISEMENT_FIELD_FEE",
      "isDebit": false,
      "isActualDemand":  false,
      "order": "0"
    }
  ]
}
