{
  "tenantId": "pb",
  "moduleName": "common-masters",
  "StateInfo": [
    {
      "name": "Panjab",
      "code":"pb",
      "bannerUrl": "https://raw.githubusercontent.com/egovernments/egov-web-app/rainmaker-v1-dynamic-state/web/rainmaker/packages/assets/images/pb/Banner_image.jpg",
      "logoUrl":"https://raw.githubusercontent.com/egovernments/egov-web-app/rainmaker-v1-dynamic-state/web/rainmaker/packages/assets/images/pb/mseva-punjab.png",
      "hasLocalisation" : true,
      "defaultUrl" : {
          "citizen" : "/user/register",
          "employee" : "/user/login"
      }
    }
  ]
}
