{
  "tenantId": "pb",
  "moduleName": "firenoc",
  "BuildingType": [
    {
      "code": "GROUP_A_RESIDENTIAL.SUBDIVISIONA-1",
      "uom": [
        "HEIGHT_OF_BUILDING"
      ],
      "active": true
    },
    {
      "code": "GROUP_A_RESIDENTIAL.SUBDIVISIONA-2",
      "uom": [
        "HEIGHT_OF_BUILDING"
      ],
      "active": true
    },
    {
      "code": "GROUP_A_RESIDENTIAL.SUBDIVISIONA-3",
      "uom": [
        "HEIGHT_OF_BUILDING"
      ],
      "active": true
    },
    {
      "code": "GROUP_A_RESIDENTIAL.SUBDIVISIONA-4",
      "uom": [
        "BUILTUP_AREA"
      ],
      "active": true
    },
    {
      "code": "GROUP_A_RESIDENTIAL.SUBDIVISIONA-5",
      "uom": [
        "BUILTUP_AREA"
      ],
      "active": true
    },
    {
      "code": "GROUP_A_RESIDENTIAL.SUBDIVISIONA-6",
      "uom": [
        "BUILTUP_AREA"
      ],
      "active": true
    },
    {
      "code": "GROUP_B_EDUCATIONAL.SUBDIVISIONB-1",
      "uom": [
        "NO_OF_STUDENTS"
      ],
      "active": true
    },
    {
      "code": "GROUP_B_EDUCATIONAL.SUBDIVISIONB-2",
      "uom": [
        "BUILTUP_AREA"
      ],
      "active": true
    },
    {
      "code": "GROUP_C_INSTITUTIONAL.SUBDIVISIONC-1",
      "uom": [
        "NO_OF_BEDS"
      ],
      "active": true
    },
    {
      "code": "GROUP_C_INSTITUTIONAL.SUBDIVISIONC-2",
      "uom": [
        "BUILTUP_AREA"
      ],
      "active": true
    },
    {
      "code": "GROUP_C_INSTITUTIONAL.SUBDIVISIONC-3",
      "uom": [
        "BUILTUP_AREA"
      ],
      "active": true
    },
    {
      "code": "GROUP_D_ASSEMBLY.SUBDIVISIOND-1",
      "uom": [
        "SEATING_CAPACITY"
      ],
      "active": true
    },
    {
      "code": "GROUP_D_ASSEMBLY.SUBDIVISIOND-2",
      "uom": [
        "SEATING_CAPACITY"
      ],
      "active": true
    },
    {
      "code": "GROUP_D_ASSEMBLY.SUBDIVISIOND-3",
      "uom": [
        "ACCOMODATION_CAPACITY_(NO_OF_PEOPLE)"
      ],
      "active": true
    },
    {
      "code": "GROUP_D_ASSEMBLY.SUBDIVISIOND-4",
      "uom": [
        "ACCOMODATION_CAPACITY_(NO_OF_PEOPLE)"
      ],
      "active": true
    },
    {
      "code": "GROUP_D_ASSEMBLY.SUBDIVISIOND-5",
      "uom": [
        "ACCOMODATION_CAPACITY_(NO_OF_PEOPLE)"
      ],
      "active": true
    },
    {
      "code": "GROUP_D_ASSEMBLY.SUBDIVISIOND-6",
      "uom": [
        "BUILTUP_AREA"
      ],
      "active": true
    },
    {
      "code": "GROUP_D_ASSEMBLY.SUBDIVISIOND-7",
      "uom": [
        "BUILTUP_AREA"
      ],
      "active": true
    },
    {
      "code": "GROUP_E_BUSINESS.SUBDIVISIONE-1",
      "uom": [
        "NO_OF_FLOORS"
      ],
      "active": true
    },
    {
      "code": "GROUP_E_BUSINESS.SUBDIVISIONE-2",
      "uom": [
        "NO_OF_FLOORS"
      ],
      "active": true
    },
    {
      "code": "GROUP_E_BUSINESS.SUBDIVISIONE-3",
      "uom": [
        "NO_OF_FLOORS"
      ],
      "active": true
    },
    {
      "code": "GROUP_E_BUSINESS.SUBDIVISIONE-4",
      "uom": [
        "NO_OF_FLOORS"
      ],
      "active": true
    },
    {
      "code": "GROUP_E_BUSINESS.SUBDIVISIONE-5",
      "uom": [
        "NO_OF_FLOORS"
      ],
      "active": true
    },
    {
      "code": "GROUP_F_MERCANTILE.SUBDIVISIONF-1",
      "uom": [
        "BUILTUP_AREA"
      ],
      "active": true
    },
    {
      "code": "GROUP_F_MERCANTILE.SUBDIVISIONF-2",
      "uom": [
        "BUILTUP_AREA"
      ],
      "active": true
    },
    {
      "code": "GROUP_F_MERCANTILE.SUBDIVISIONF-3",
      "uom": [
        "BUILTUP_AREA"
      ],
      "active": true
    },
    {
      "code": "GROUP_G_INDUSTRIAL.SUBDIVISIONG-1",
      "uom": [
        "PLOT_SIZE"
      ],
      "active": true
    },
    {
      "code": "GROUP_G_INDUSTRIAL.SUBDIVISIONG-2",
      "uom": [
        "PLOT_SIZE"
      ],
      "active": true
    },
    {
      "code": "GROUP_G_INDUSTRIAL.SUBDIVISIONG-3",
      "uom": [
        "PLOT_SIZE"
      ],
      "active": true
    },
    {
      "code": "GROUP_H_STORAGE.",
      "uom": [
        "PLOT_SIZE"
      ],
      "active": true
    },
    {
      "code": "GROUP_J_HAZARDOUS.",
      "uom": [
        "PLOT_SIZE"
      ],
      "active": true
    }
  ]
}