{
  "tenantId": "pb.amritsar",
  "moduleName": "firenoc",
  "Documents": [
    {
      "code": "IDENTITYPROOF",
      "documentType": "OWNER",
      "required": true,
      "active": true,
      "hasDropdown": true,
      "dropdownData": [
        { "code": "AADHAAR", "active": true },
        { "code": "VOTERID", "active": true },
        { "code": "DRIVING", "active": true }
      ],
      "description": "IDENTITYPROOF_DESCRIPTION"
    },
    {
      "code": "ADDRESS",
      "documentType": "OWNER",
      "required": true,
      "active": true,
      "hasDropdown": true,
      "dropdownData": [
        { "code": "ELECTRICITYBILL", "active": true },
        { "code": "DL", "active": true },
        { "code": "VOTERID", "active": true }
      ],
      "description": "ADDRESSPROOF_DESCRIPTION"
    },
    {
      "code": "BUILDING_PLAN",
      "documentType": "BUILDING",
      "active": true,
      "hasMultipleRows": true,
      "options": [
        { "code": "SITE_PLAN", "required": false, "active": true },
        { "code": "GROUND_FLOOR_PLAN", "required": false, "active": true },
        { "code": "SECTION_PLAN", "required": false, "active": true },
        { "code": "ELEVATION_PLAN", "required": false, "active": true },
        { "code": "BUILTUP_AREA_STATEMENT", "required": false, "active": true }
      ],
      "description": "BUILDING_PLAN_DESCRIPTION"
    },
    {
      "code": "FIRE_FIGHTING_PLAN",
      "documentType": "BUILDING",
      "active": true,
      "hasMultipleRows": true,
      "options": [
        {
          "code": "SD_FIRE_FIGHTING_SYSTEM",
          "required": false,
          "active": true
        },
        {
          "code": "SD_FIRE_DETECTING_SYSTEM",
          "required": false,
          "active": true
        }
      ],
      "description": "FIRE_FIGHTING_PLAN_DESCRIPTION"
    },
    {
      "code": "OWNERS_CHECKLIST",
      "documentType": "BUILDING",
      "active": true,
      "hasMultipleRows": true,
      "options": [
        { "code": "FLS_CHECKLIST", "required": false, "active": true },
        { "code": "COPY_PROVISIONAL_NOC", "required": false, "active": true }
      ]
    }
  ]
}
